{"type":"data","nodes":[{"type":"data","data":[null],"uses":{}},{"type":"data","data":[{"data":1,"meta":51},[2],{"id":3,"attributes":4},9,{"name":5,"content":6,"createdAt":7,"updatedAt":8,"publishedAt":9,"slug":10,"position":11,"excerpt":12,"memberPhoto":13},"KEVIN BERGA","\u003Cp\u003EKevin is a superintendent with ULFBUILT. He coordinates and leads operations, both large and small. Kevin has a background in building commercial multi-level parking structures, concrete, construction software. He is the UlfBuilt factory certified Wolf, Sub-Zero, Cove appliance technician\u002Finstaller.\u003C\u002Fp\u003E\u003Cp\u003EKevin moved to the Valley in 1994, from Austin Texas, is married to his beautiful wife Colleen. They have two sons, Silas &amp; Otto, and one awesome working retriever, Rex.\u003C\u002Fp\u003E\u003Cp\u003EKevin and his family enjoy skiing, hiking, Yoga, hunting, sitting on the porch with friends and live music.\u003C\u002Fp\u003E\u003Cp\u003EBuilding relationships is just as important as building a home, we all want a builder who is dedicated and invested with the client. The construction business is truly a people first business. Kevin is a people person with an infectious smile and humorous personality and he would love to be a part of your next project.\u003C\u002Fp\u003E","2023-02-16T15:14:18.766Z","2023-02-16T15:14:56.066Z","2023-02-16T15:14:56.063Z","kevin-berga","Superintendent",null,{"data":14},{"id":15,"attributes":16},22,{"name":17,"alternativeText":12,"caption":12,"width":18,"height":18,"formats":19,"hash":46,"ext":23,"mime":24,"size":47,"url":48,"previewUrl":12,"provider":49,"provider_metadata":12,"createdAt":50,"updatedAt":50},"KevinBurga.jpeg",1024,{"thumbnail":20,"small":28,"medium":34,"large":40},{"name":21,"hash":22,"ext":23,"mime":24,"path":12,"width":25,"height":25,"size":26,"url":27},"thumbnail_KevinBurga.jpeg","thumbnail_Kevin_Burga_8bd0fa2189",".jpeg","image\u002Fjpeg",156,7.21,"\u002Fuploads\u002Fthumbnail_Kevin_Burga_8bd0fa2189.jpeg",{"name":29,"hash":30,"ext":23,"mime":24,"path":12,"width":31,"height":31,"size":32,"url":33},"small_KevinBurga.jpeg","small_Kevin_Burga_8bd0fa2189",500,48.76,"\u002Fuploads\u002Fsmall_Kevin_Burga_8bd0fa2189.jpeg",{"name":35,"hash":36,"ext":23,"mime":24,"path":12,"width":37,"height":37,"size":38,"url":39},"medium_KevinBurga.jpeg","medium_Kevin_Burga_8bd0fa2189",750,93.78,"\u002Fuploads\u002Fmedium_Kevin_Burga_8bd0fa2189.jpeg",{"name":41,"hash":42,"ext":23,"mime":24,"path":12,"width":43,"height":43,"size":44,"url":45},"large_KevinBurga.jpeg","large_Kevin_Burga_8bd0fa2189",1000,145.2,"\u002Fuploads\u002Flarge_Kevin_Burga_8bd0fa2189.jpeg","Kevin_Burga_8bd0fa2189",150.34,"\u002Fuploads\u002FKevin_Burga_8bd0fa2189.jpeg","local","2023-02-16T15:13:38.273Z",{"pagination":52},{"page":53,"pageSize":54,"pageCount":53,"total":53},1,25],"uses":{"params":["slug"]}}]}