{"type":"data","nodes":[{"type":"data","data":[null],"uses":{}},{"type":"data","data":[{"data":1,"meta":51},[2],{"id":3,"attributes":4},6,{"name":5,"content":6,"createdAt":7,"updatedAt":8,"publishedAt":9,"slug":10,"position":11,"excerpt":12,"memberPhoto":13},"SAUL MORALES","\u003Cp\u003ESaul has worked with the ULFBUILT team for the last 6 years and recently came on board as a superintendent. Saul is a true craftsman and trained under master woods craftsman Will Glassbrenner. Saul is a great team leader and has a genuinely positive attitude and approach to running jobs. He is a great asset to have on our in-house team and we are thrilled to have him.\u003C\u002Fp\u003E\u003Cp\u003ESaul has been in the Vail Valley since 1980 and had his own interior trim business for almost 20 years. Saul is avid about his healthy lifestyle and lives his life with passion in all he does. Saul is truly a talented man with a kind and great spirit; he loves to spend his time with his family enjoying all the great things life has to offer.\u003C\u002Fp\u003E","2023-02-16T15:09:06.539Z","2023-02-16T15:09:12.343Z","2023-02-16T15:09:12.340Z","saul-morales","Superintendent",null,{"data":14},{"id":15,"attributes":16},18,{"name":17,"alternativeText":12,"caption":12,"width":18,"height":18,"formats":19,"hash":46,"ext":23,"mime":24,"size":47,"url":48,"previewUrl":12,"provider":49,"provider_metadata":12,"createdAt":50,"updatedAt":50},"Saul-Morales-2.jpeg",1024,{"thumbnail":20,"small":28,"large":34,"medium":40},{"name":21,"hash":22,"ext":23,"mime":24,"path":12,"width":25,"height":25,"size":26,"url":27},"thumbnail_Saul-Morales-2.jpeg","thumbnail_Saul_Morales_2_10a0b16f62",".jpeg","image\u002Fjpeg",156,4.88,"\u002Fuploads\u002Fthumbnail_Saul_Morales_2_10a0b16f62.jpeg",{"name":29,"hash":30,"ext":23,"mime":24,"path":12,"width":31,"height":31,"size":32,"url":33},"small_Saul-Morales-2.jpeg","small_Saul_Morales_2_10a0b16f62",500,36.11,"\u002Fuploads\u002Fsmall_Saul_Morales_2_10a0b16f62.jpeg",{"name":35,"hash":36,"ext":23,"mime":24,"path":12,"width":37,"height":37,"size":38,"url":39},"large_Saul-Morales-2.jpeg","large_Saul_Morales_2_10a0b16f62",1000,115.46,"\u002Fuploads\u002Flarge_Saul_Morales_2_10a0b16f62.jpeg",{"name":41,"hash":42,"ext":23,"mime":24,"path":12,"width":43,"height":43,"size":44,"url":45},"medium_Saul-Morales-2.jpeg","medium_Saul_Morales_2_10a0b16f62",750,72.86,"\u002Fuploads\u002Fmedium_Saul_Morales_2_10a0b16f62.jpeg","Saul_Morales_2_10a0b16f62",119.66,"\u002Fuploads\u002FSaul_Morales_2_10a0b16f62.jpeg","local","2023-02-16T15:09:01.541Z",{"pagination":52},{"page":53,"pageSize":54,"pageCount":53,"total":53},1,25],"uses":{"params":["slug"]}}]}