{"type":"data","nodes":[{"type":"data","data":[null],"uses":{}},{"type":"data","data":[{"data":1,"meta":50},[2],{"id":3,"attributes":4},12,{"name":5,"content":6,"createdAt":7,"updatedAt":8,"publishedAt":9,"slug":10,"position":11,"excerpt":6,"memberPhoto":12},"Matt Border",null,"2023-02-16T15:24:20.744Z","2023-02-16T15:24:36.021Z","2023-02-16T15:24:36.018Z","matt-borde","Project Manager",{"data":13},{"id":14,"attributes":15},24,{"name":16,"alternativeText":6,"caption":6,"width":17,"height":17,"formats":18,"hash":45,"ext":22,"mime":23,"size":46,"url":47,"previewUrl":6,"provider":48,"provider_metadata":6,"createdAt":49,"updatedAt":49},"Matt-Border-Headshot-1.jpeg",1024,{"thumbnail":19,"small":27,"large":33,"medium":39},{"name":20,"hash":21,"ext":22,"mime":23,"path":6,"width":24,"height":24,"size":25,"url":26},"thumbnail_Matt-Border-Headshot-1.jpeg","thumbnail_Matt_Border_Headshot_1_0b5449986d",".jpeg","image\u002Fjpeg",156,6.08,"\u002Fuploads\u002Fthumbnail_Matt_Border_Headshot_1_0b5449986d.jpeg",{"name":28,"hash":29,"ext":22,"mime":23,"path":6,"width":30,"height":30,"size":31,"url":32},"small_Matt-Border-Headshot-1.jpeg","small_Matt_Border_Headshot_1_0b5449986d",500,36.87,"\u002Fuploads\u002Fsmall_Matt_Border_Headshot_1_0b5449986d.jpeg",{"name":34,"hash":35,"ext":22,"mime":23,"path":6,"width":36,"height":36,"size":37,"url":38},"large_Matt-Border-Headshot-1.jpeg","large_Matt_Border_Headshot_1_0b5449986d",1000,106,"\u002Fuploads\u002Flarge_Matt_Border_Headshot_1_0b5449986d.jpeg",{"name":40,"hash":41,"ext":22,"mime":23,"path":6,"width":42,"height":42,"size":43,"url":44},"medium_Matt-Border-Headshot-1.jpeg","medium_Matt_Border_Headshot_1_0b5449986d",750,68.69,"\u002Fuploads\u002Fmedium_Matt_Border_Headshot_1_0b5449986d.jpeg","Matt_Border_Headshot_1_0b5449986d",85.99,"\u002Fuploads\u002FMatt_Border_Headshot_1_0b5449986d.jpeg","local","2023-02-16T15:24:14.691Z",{"pagination":51},{"page":52,"pageSize":53,"pageCount":52,"total":52},1,25],"uses":{"params":["slug"]}}]}