{"type":"data","nodes":[{"type":"data","data":[null],"uses":{}},{"type":"data","data":[{"data":1,"meta":51},[2],{"id":3,"attributes":4},10,{"name":5,"content":6,"createdAt":7,"updatedAt":8,"publishedAt":9,"slug":10,"position":11,"excerpt":6,"memberPhoto":12},"Frederico Garcia",null,"2023-02-16T15:16:41.701Z","2023-02-16T15:16:53.212Z","2023-02-16T15:16:53.208Z","frederico","Foreman",{"data":13},{"id":14,"attributes":15},19,{"name":16,"alternativeText":6,"caption":6,"width":17,"height":17,"formats":18,"hash":45,"ext":22,"mime":23,"size":46,"url":47,"previewUrl":6,"provider":48,"provider_metadata":6,"createdAt":49,"updatedAt":50},"Federico-Garcia-1.jpeg",1024,{"thumbnail":19,"small":27,"medium":33,"large":39},{"name":20,"hash":21,"ext":22,"mime":23,"path":6,"width":24,"height":24,"size":25,"url":26},"thumbnail_Federico-Garcia-1.jpeg","thumbnail_Federico_Garcia_1_6a28329a1c",".jpeg","image\u002Fjpeg",156,6.05,"\u002Fuploads\u002Fthumbnail_Federico_Garcia_1_6a28329a1c.jpeg",{"name":28,"hash":29,"ext":22,"mime":23,"path":6,"width":30,"height":30,"size":31,"url":32},"small_Federico-Garcia-1.jpeg","small_Federico_Garcia_1_6a28329a1c",500,45.24,"\u002Fuploads\u002Fsmall_Federico_Garcia_1_6a28329a1c.jpeg",{"name":34,"hash":35,"ext":22,"mime":23,"path":6,"width":36,"height":36,"size":37,"url":38},"medium_Federico-Garcia-1.jpeg","medium_Federico_Garcia_1_6a28329a1c",750,94.87,"\u002Fuploads\u002Fmedium_Federico_Garcia_1_6a28329a1c.jpeg",{"name":40,"hash":41,"ext":22,"mime":23,"path":6,"width":42,"height":42,"size":43,"url":44},"large_Federico-Garcia-1.jpeg","large_Federico_Garcia_1_6a28329a1c",1000,152.95,"\u002Fuploads\u002Flarge_Federico_Garcia_1_6a28329a1c.jpeg","Federico_Garcia_1_6a28329a1c",156.11,"\u002Fuploads\u002FFederico_Garcia_1_6a28329a1c.jpeg","local","2023-02-16T15:10:04.409Z","2023-02-16T15:16:35.574Z",{"pagination":52},{"page":53,"pageSize":54,"pageCount":53,"total":53},1,25],"uses":{"params":["slug"]}}]}