{"type":"data","nodes":[{"type":"data","data":[null],"uses":{}},{"type":"data","data":[{"data":1,"meta":51},[2],{"id":3,"attributes":4},3,{"name":5,"content":6,"createdAt":7,"updatedAt":8,"publishedAt":9,"slug":10,"position":11,"excerpt":12,"memberPhoto":13},"NICLAS KULLBERGER","\u003Cp\u003ENiclas joined ULFBUILT in early 2017. He has a BS degree in Accounting\u002FFinance and a background as an Assistant Controller and Financial Analyst. Niclas also has an extensive background working in the customer service business, including the hotel and ski industry.\u003C\u002Fp\u003E\u003Cp\u003ENiclas is calm, patient and has an eye for the details. He’s constantly looking for ways to improve current processes by challenging the status quo. Niclas volunteers wherever he is needed so in addition to handling Finance, IT, Marketing, and HR, he can be found assisting at job sites, delivering materials and supporting the ULFBUILT team.\u003C\u002Fp\u003E\u003Cp\u003ENiclas is originally from Sweden, and moved to the Vail Valley in 1997 to work as a Ski Instructor. After a few years he met his wife Tanya and now they have two beautiful boys.\u003C\u002Fp\u003E\u003Cp\u003ENiclas and his family enjoy skiing, mountain biking, golfing, camping, and everything else the Vail Valley offers.\u003C\u002Fp\u003E","2023-02-16T15:05:24.522Z","2023-02-16T15:07:59.259Z","2023-02-16T15:07:59.257Z","niclas-kullberger","Controller",null,{"data":14},{"id":15,"attributes":16},15,{"name":17,"alternativeText":12,"caption":12,"width":18,"height":18,"formats":19,"hash":46,"ext":23,"mime":24,"size":47,"url":48,"previewUrl":12,"provider":49,"provider_metadata":12,"createdAt":50,"updatedAt":50},"nicolas-1.jpeg",1024,{"thumbnail":20,"medium":28,"small":34,"large":40},{"name":21,"hash":22,"ext":23,"mime":24,"path":12,"width":25,"height":25,"size":26,"url":27},"thumbnail_nicolas-1.jpeg","thumbnail_nicolas_1_9bf8a27b94",".jpeg","image\u002Fjpeg",156,5.19,"\u002Fuploads\u002Fthumbnail_nicolas_1_9bf8a27b94.jpeg",{"name":29,"hash":30,"ext":23,"mime":24,"path":12,"width":31,"height":31,"size":32,"url":33},"medium_nicolas-1.jpeg","medium_nicolas_1_9bf8a27b94",750,59.48,"\u002Fuploads\u002Fmedium_nicolas_1_9bf8a27b94.jpeg",{"name":35,"hash":36,"ext":23,"mime":24,"path":12,"width":37,"height":37,"size":38,"url":39},"small_nicolas-1.jpeg","small_nicolas_1_9bf8a27b94",500,31.31,"\u002Fuploads\u002Fsmall_nicolas_1_9bf8a27b94.jpeg",{"name":41,"hash":42,"ext":23,"mime":24,"path":12,"width":43,"height":43,"size":44,"url":45},"large_nicolas-1.jpeg","large_nicolas_1_9bf8a27b94",1000,93.88,"\u002Fuploads\u002Flarge_nicolas_1_9bf8a27b94.jpeg","nicolas_1_9bf8a27b94",93.82,"\u002Fuploads\u002Fnicolas_1_9bf8a27b94.jpeg","local","2023-02-16T15:04:43.936Z",{"pagination":52},{"page":53,"pageSize":54,"pageCount":53,"total":53},1,25],"uses":{"params":["slug"]}}]}