{"type":"data","nodes":[{"type":"data","data":[null],"uses":{}},{"type":"data","data":[{"data":1,"meta":50},[2],{"id":3,"attributes":4},13,{"name":5,"content":6,"createdAt":7,"updatedAt":8,"publishedAt":9,"slug":10,"position":11,"excerpt":6,"memberPhoto":12},"Austin Murray",null,"2023-02-16T16:44:35.699Z","2023-02-16T16:44:41.679Z","2023-02-16T16:44:41.675Z","austin-murray","Foreman",{"data":13},{"id":14,"attributes":15},25,{"name":16,"alternativeText":6,"caption":6,"width":17,"height":17,"formats":18,"hash":45,"ext":22,"mime":23,"size":46,"url":47,"previewUrl":6,"provider":48,"provider_metadata":6,"createdAt":49,"updatedAt":49},"Austin-Murray-Headshot-1.jpeg",1024,{"thumbnail":19,"small":27,"large":33,"medium":39},{"name":20,"hash":21,"ext":22,"mime":23,"path":6,"width":24,"height":24,"size":25,"url":26},"thumbnail_Austin-Murray-Headshot-1.jpeg","thumbnail_Austin_Murray_Headshot_1_ddf0fdfd3e",".jpeg","image\u002Fjpeg",156,5.95,"\u002Fuploads\u002Fthumbnail_Austin_Murray_Headshot_1_ddf0fdfd3e.jpeg",{"name":28,"hash":29,"ext":22,"mime":23,"path":6,"width":30,"height":30,"size":31,"url":32},"small_Austin-Murray-Headshot-1.jpeg","small_Austin_Murray_Headshot_1_ddf0fdfd3e",500,35.11,"\u002Fuploads\u002Fsmall_Austin_Murray_Headshot_1_ddf0fdfd3e.jpeg",{"name":34,"hash":35,"ext":22,"mime":23,"path":6,"width":36,"height":36,"size":37,"url":38},"large_Austin-Murray-Headshot-1.jpeg","large_Austin_Murray_Headshot_1_ddf0fdfd3e",1000,101.79,"\u002Fuploads\u002Flarge_Austin_Murray_Headshot_1_ddf0fdfd3e.jpeg",{"name":40,"hash":41,"ext":22,"mime":23,"path":6,"width":42,"height":42,"size":43,"url":44},"medium_Austin-Murray-Headshot-1.jpeg","medium_Austin_Murray_Headshot_1_ddf0fdfd3e",750,65.97,"\u002Fuploads\u002Fmedium_Austin_Murray_Headshot_1_ddf0fdfd3e.jpeg","Austin_Murray_Headshot_1_ddf0fdfd3e",81.83,"\u002Fuploads\u002FAustin_Murray_Headshot_1_ddf0fdfd3e.jpeg","local","2023-02-16T16:44:29.304Z",{"pagination":51},{"page":52,"pageSize":14,"pageCount":52,"total":52},1],"uses":{"params":["slug"]}}]}