{"type":"data","nodes":[{"type":"data","data":[null],"uses":{}},{"type":"data","data":[{"data":1,"meta":50},[2],{"id":3,"attributes":4},11,{"name":5,"content":6,"createdAt":7,"updatedAt":8,"publishedAt":9,"slug":10,"position":11,"excerpt":6,"memberPhoto":12},"Alex Chay",null,"2023-02-16T15:17:39.854Z","2023-02-16T15:17:47.903Z","2023-02-16T15:17:47.900Z","a-1","Superintendent",{"data":13},{"id":14,"attributes":15},23,{"name":16,"alternativeText":6,"caption":6,"width":17,"height":17,"formats":18,"hash":45,"ext":22,"mime":23,"size":46,"url":47,"previewUrl":6,"provider":48,"provider_metadata":6,"createdAt":49,"updatedAt":49},"Alex-Chay.jpeg",1024,{"thumbnail":19,"small":27,"medium":33,"large":39},{"name":20,"hash":21,"ext":22,"mime":23,"path":6,"width":24,"height":24,"size":25,"url":26},"thumbnail_Alex-Chay.jpeg","thumbnail_Alex_Chay_cc7e88c611",".jpeg","image\u002Fjpeg",156,6.89,"\u002Fuploads\u002Fthumbnail_Alex_Chay_cc7e88c611.jpeg",{"name":28,"hash":29,"ext":22,"mime":23,"path":6,"width":30,"height":30,"size":31,"url":32},"small_Alex-Chay.jpeg","small_Alex_Chay_cc7e88c611",500,47.85,"\u002Fuploads\u002Fsmall_Alex_Chay_cc7e88c611.jpeg",{"name":34,"hash":35,"ext":22,"mime":23,"path":6,"width":36,"height":36,"size":37,"url":38},"medium_Alex-Chay.jpeg","medium_Alex_Chay_cc7e88c611",750,94.56,"\u002Fuploads\u002Fmedium_Alex_Chay_cc7e88c611.jpeg",{"name":40,"hash":41,"ext":22,"mime":23,"path":6,"width":42,"height":42,"size":43,"url":44},"large_Alex-Chay.jpeg","large_Alex_Chay_cc7e88c611",1000,148.84,"\u002Fuploads\u002Flarge_Alex_Chay_cc7e88c611.jpeg","Alex_Chay_cc7e88c611",146.15,"\u002Fuploads\u002FAlex_Chay_cc7e88c611.jpeg","local","2023-02-16T15:17:30.233Z",{"pagination":51},{"page":52,"pageSize":53,"pageCount":52,"total":52},1,25],"uses":{"params":["slug"]}}]}