{"type":"data","nodes":[{"type":"data","data":[null],"uses":{}},{"type":"data","data":[{"data":1,"meta":51},[2],{"id":3,"attributes":4},7,{"name":5,"content":6,"createdAt":7,"updatedAt":8,"publishedAt":9,"slug":10,"position":11,"excerpt":12,"memberPhoto":13},"ERIC BONTRAGER","\u003Cp\u003EEric has been with ULFBUILT since 2014 and has 15 years of construction experience. In addition to being a calm, detailed and focused superintendent, Eric excels at establishing sequencing and schedules and follow-through on finish details.\u003C\u002Fp\u003E\u003Cp\u003EEric is originally from Indiana and has lived in Eagle County for the last 13 years. He is happily married with two children and enjoys golfing, mountain biking, skiing, hiking, gardening, playing percussion and spending time with family\u003C\u002Fp\u003E","2023-02-16T15:10:57.238Z","2023-02-16T15:15:01.912Z","2023-02-16T15:15:01.905Z","eric-bontrager","Superintendent",null,{"data":14},{"id":15,"attributes":16},20,{"name":17,"alternativeText":12,"caption":12,"width":18,"height":18,"formats":19,"hash":46,"ext":23,"mime":24,"size":47,"url":48,"previewUrl":12,"provider":49,"provider_metadata":12,"createdAt":50,"updatedAt":50},"Eric-Bontrager-1.jpeg",1024,{"thumbnail":20,"medium":28,"small":34,"large":40},{"name":21,"hash":22,"ext":23,"mime":24,"path":12,"width":25,"height":25,"size":26,"url":27},"thumbnail_Eric-Bontrager-1.jpeg","thumbnail_Eric_Bontrager_1_e369abcceb",".jpeg","image\u002Fjpeg",156,4.77,"\u002Fuploads\u002Fthumbnail_Eric_Bontrager_1_e369abcceb.jpeg",{"name":29,"hash":30,"ext":23,"mime":24,"path":12,"width":31,"height":31,"size":32,"url":33},"medium_Eric-Bontrager-1.jpeg","medium_Eric_Bontrager_1_e369abcceb",750,60.74,"\u002Fuploads\u002Fmedium_Eric_Bontrager_1_e369abcceb.jpeg",{"name":35,"hash":36,"ext":23,"mime":24,"path":12,"width":37,"height":37,"size":38,"url":39},"small_Eric-Bontrager-1.jpeg","small_Eric_Bontrager_1_e369abcceb",500,31.33,"\u002Fuploads\u002Fsmall_Eric_Bontrager_1_e369abcceb.jpeg",{"name":41,"hash":42,"ext":23,"mime":24,"path":12,"width":43,"height":43,"size":44,"url":45},"large_Eric-Bontrager-1.jpeg","large_Eric_Bontrager_1_e369abcceb",1000,94.55,"\u002Fuploads\u002Flarge_Eric_Bontrager_1_e369abcceb.jpeg","Eric_Bontrager_1_e369abcceb",91.01,"\u002Fuploads\u002FEric_Bontrager_1_e369abcceb.jpeg","local","2023-02-16T15:10:27.489Z",{"pagination":52},{"page":53,"pageSize":54,"pageCount":53,"total":53},1,25],"uses":{"params":["slug"]}}]}