{"type":"data","nodes":[{"type":"data","data":[null],"uses":{}},{"type":"data","data":[{"data":1,"meta":52},[2],{"id":3,"attributes":4},5,{"name":5,"content":6,"createdAt":7,"updatedAt":8,"publishedAt":9,"slug":10,"position":11,"excerpt":12,"memberPhoto":13},"JUSTIN WOHLRABE","\u003Cp\u003EJustin joined our Ulf Built team in the end of 2016 and has been in the Colorado construction industry for the last 13 years. Justin thrives at bringing his strong midwestern work ethic to every job site and successfully manages a variety of interpersonal dynamics that can occur on the job. &nbsp;He has experience in passive house construction and cares about sustainable building practices. Justin has a very friendly and driven personality that keeps projects on task, on budget, and moving forward.\u003C\u002Fp\u003E\u003Cp\u003EJustin is originally from Stevens Point, WI and went to Indiana University in Bloomington. Justin loves all forms of cycling, skiing, traveling, and fabricating furniture and truck parts in his free time. Justin’s love and talent in biking is a natural fit to join our ULFBUILT bike racing team this season!\u003C\u002Fp\u003E","2023-02-16T15:07:44.756Z","2023-02-16T15:07:50.477Z","2023-02-16T15:07:50.473Z","justin-wohlrabe","Superintendent",null,{"data":14},{"id":15,"attributes":16},17,{"name":17,"alternativeText":12,"caption":12,"width":18,"height":18,"formats":19,"hash":46,"ext":23,"mime":24,"size":47,"url":48,"previewUrl":12,"provider":49,"provider_metadata":12,"createdAt":50,"updatedAt":51},"Justin-Wohlrabe-1.jpeg",1024,{"thumbnail":20,"medium":28,"small":34,"large":40},{"name":21,"hash":22,"ext":23,"mime":24,"path":12,"width":25,"height":25,"size":26,"url":27},"thumbnail_Justin-Wohlrabe-1.jpeg","thumbnail_Justin_Wohlrabe_1_55c3d1d89c",".jpeg","image\u002Fjpeg",156,4.64,"\u002Fuploads\u002Fthumbnail_Justin_Wohlrabe_1_55c3d1d89c.jpeg",{"name":29,"hash":30,"ext":23,"mime":24,"path":12,"width":31,"height":31,"size":32,"url":33},"medium_Justin-Wohlrabe-1.jpeg","medium_Justin_Wohlrabe_1_55c3d1d89c",750,61.6,"\u002Fuploads\u002Fmedium_Justin_Wohlrabe_1_55c3d1d89c.jpeg",{"name":35,"hash":36,"ext":23,"mime":24,"path":12,"width":37,"height":37,"size":38,"url":39},"small_Justin-Wohlrabe-1.jpeg","small_Justin_Wohlrabe_1_55c3d1d89c",500,30.62,"\u002Fuploads\u002Fsmall_Justin_Wohlrabe_1_55c3d1d89c.jpeg",{"name":41,"hash":42,"ext":23,"mime":24,"path":12,"width":43,"height":43,"size":44,"url":45},"large_Justin-Wohlrabe-1.jpeg","large_Justin_Wohlrabe_1_55c3d1d89c",1000,98.56,"\u002Fuploads\u002Flarge_Justin_Wohlrabe_1_55c3d1d89c.jpeg","Justin_Wohlrabe_1_55c3d1d89c",98.02,"\u002Fuploads\u002FJustin_Wohlrabe_1_55c3d1d89c.jpeg","local","2023-02-16T15:07:16.647Z","2023-02-17T10:18:34.539Z",{"pagination":53},{"page":54,"pageSize":55,"pageCount":54,"total":54},1,25],"uses":{"params":["slug"]}}]}